211028_Griess_time_series_trial2
…
dim(df_NO2NO3_mcf)

[1] 88 13

df_NO2NO3_innate_mcf <- df_NO2NO3_mcf %>% filter(Sample_type== "Soil", Nitrate_input != 0) %>% arrange(Sample) %>%
  left_join(add_innate_mcf, by=c("Category"="Category", "Sample_type"="Sample_type", "Sampling_method"="Sampling_method", "Time_point"="Time_point")) %>% 
  mutate(Retrieved_NO3_mM_mcf = Ave_NO3_mM - Innate_NO3_mM)

# Retrieved ratio of spike ins
df_NO2NO3_innate_mcf$Ratio_retrieved_mcf <- df_NO2NO3_innate_mcf$Retrieved_NO3_mM_mcf / df_NO2NO3_innate_mcf$Nitrate_input 
df_NO2NO3_innate_mcf$Std_Ratio_retrieved_mcf <- df_NO2NO3_innate_mcf$Std_NO3_mM / df_NO2NO3_innate_mcf$Nitrate_input 

df_NO2NO3_innate_mcf

# A tibble: 33 x 17
   Sample    Nitrate_input Category Sample_type Sampling_method Time_point Plate
   <chr>             <dbl> <chr>    <fct>       <chr>           <chr>      <chr>
 1 Aerobic_~          1.25 Aerobic  Soil        freeze-filter   T0         P1   
 2 Aerobic_~          1.25 Aerobic  Soil        freeze-filter   T1         P2   
 3 Aerobic_~          1.25 Aerobic  Soil        freeze-filter   T2         P3   
 4 Aerobic_~          1.25 Aerobic  Soil        freeze-filter   T3         P3   
 5 Aerobic_~          1.25 Aerobic  Soil        freeze-filter   T4         P4   
 6 Aerobic_~          2.5  Aerobic  Soil        freeze-filter   T0         P1   
 7 Aerobic_~          2.5  Aerobic  Soil        freeze-filter   T1         P2   
 8 Aerobic_~          2.5  Aerobic  Soil        freeze-filter   T2         P3   
 9 Aerobic_~          2.5  Aerobic  Soil        freeze-filter   T3         P3   
10 Aerobic_~          2.5  Aerobic  Soil        freeze-filter   T4         P4   
# ... with 23 more rows, and 10 more variables: Ave_NO2_mM <dbl>,
#   Std_NO2_mM <dbl>, Ave_NO3_mM <dbl>, Std_NO3_mM <dbl>, Time_minutes <chr>,
#   Time_hours <dbl>, Innate_NO3_mM <dbl>, Retrieved_NO3_mM_mcf <dbl>,
#   Ratio_retrieved_mcf <dbl>, Std_Ratio_retrieved_mcf <dbl>
…
4.3. After blank correction (method1)

Use standard curves to do the correction

# before blank correction
df_NO2NO3_mcf %>% filter(Sample_type == "Blank")

# A tibble: 44 x 13
   Sample    Nitrate_input Category Sample_type Sampling_method Time_point Plate
   <chr>             <dbl> <chr>    <fct>       <chr>           <chr>      <chr>
 1 Aerobic_~          0    Aerobic  Blank       freeze-filter   T0         P1   
 2 Aerobic_~          0    Aerobic  Blank       freeze-filter   T1         P2   
 3 Aerobic_~          0    Aerobic  Blank       freeze-filter   T2         P3   
 4 Aerobic_~          0    Aerobic  Blank       freeze-filter   T3         P3   
 5 Aerobic_~          0    Aerobic  Blank       freeze-filter   T4         P4   
 6 Aerobic_~          1.25 Aerobic  Blank       freeze-filter   T0         P1   
 7 Aerobic_~          1.25 Aerobic  Blank       freeze-filter   T1         P2   
 8 Aerobic_~          1.25 Aerobic  Blank       freeze-filter   T2         P3   
 9 Aerobic_~          1.25 Aerobic  Blank       freeze-filter   T3         P3   
10 Aerobic_~          1.25 Aerobic  Blank       freeze-filter   T4         P4   
# ... with 34 more rows, and 6 more variables: Ave_NO2_mM <dbl>,
#   Std_NO2_mM <dbl>, Ave_NO3_mM <dbl>, Std_NO3_mM <dbl>, Time_minutes <chr>,
#   Time_hours <dbl>

df_NO2NO3_blank_mcf

# A tibble: 44 x 11
   Sample    Nitrate_input Category Sample_type Sampling_method Time_point Plate
   <chr>             <dbl> <chr>    <fct>       <chr>           <chr>      <chr>
 1 Aerobic_~          0    Aerobic  Blank       freeze-filter   T0         P1   
 2 Aerobic_~          0    Aerobic  Blank       freeze-filter   T1         P2   
 3 Aerobic_~          0    Aerobic  Blank       freeze-filter   T2         P3   
 4 Aerobic_~          0    Aerobic  Blank       freeze-filter   T3         P3   
 5 Aerobic_~          0    Aerobic  Blank       freeze-filter   T4         P4   
 6 Aerobic_~          1.25 Aerobic  Blank       freeze-filter   T0         P1   
 7 Aerobic_~          1.25 Aerobic  Blank       freeze-filter   T1         P2   
 8 Aerobic_~          1.25 Aerobic  Blank       freeze-filter   T2         P3   
 9 Aerobic_~          1.25 Aerobic  Blank       freeze-filter   T3         P3   
10 Aerobic_~          1.25 Aerobic  Blank       freeze-filter   T4         P4   
# ... with 34 more rows, and 4 more variables: Ave_NO2_mM <dbl>,
#   Std_NO2_mM <dbl>, Ave_NO3_mM <dbl>, Std_NO3_mM <dbl>
…
