211128_Griess_time_series_3soil
…
# Factor in orders
df_NO2NO3$Sample_type <-  factor(df_NO2NO3$Sample_type, levels = c("Soil", "Nitrite_Blank", "Nitrate_Blank"))
df_NO2NO3$Time_point <-  factor(df_NO2NO3$Time_point, levels = paste0("T",0:10))
dim(df_NO2NO3) #294

[1] 294  16

# Testing negative samples
df_no3_blank <- df_NO2NO3 %>% filter(Sample_type == "Nitrate_Blank")
df_no3_blank # 21

# A tibble: 21 x 16
   Sample        Nitrite_input Nitrate_input Category Sample_type  Soil       pH
   <chr>                 <dbl>         <dbl> <chr>    <fct>        <chr>   <dbl>
 1 Aerobic_Nitr~             0             2 Aerobic  Nitrate_Bla~ Nitrat~     6
 2 Aerobic_Nitr~             0             2 Aerobic  Nitrate_Bla~ Nitrat~     6
 3 Aerobic_Nitr~             0             2 Aerobic  Nitrate_Bla~ Nitrat~     6
 4 Aerobic_Nitr~             0             2 Aerobic  Nitrate_Bla~ Nitrat~     6
 5 Aerobic_Nitr~             0             2 Aerobic  Nitrate_Bla~ Nitrat~     6
 6 Aerobic_Nitr~             0             2 Aerobic  Nitrate_Bla~ Nitrat~     6
 7 Aerobic_Nitr~             0             2 Aerobic  Nitrate_Bla~ Nitrat~     6
 8 Aerobic_Nitr~             0             2 Aerobic  Nitrate_Bla~ Nitrat~     6
 9 Aerobic_Nitr~             0             2 Aerobic  Nitrate_Bla~ Nitrat~     6
10 Aerobic_Nitr~             0             2 Aerobic  Nitrate_Bla~ Nitrat~     6
# ... with 11 more rows, and 9 more variables: Time_point <fct>, Plate <chr>,
#   Time_minutes <chr>, Time_hours <dbl>, Time_days <dbl>, Ave_NO2_mM <dbl>,
#   Std_NO2_mM <dbl>, Ave_NO3_mM <dbl>, Std_NO3_mM <dbl>

df_no2_blank <- df_NO2NO3 %>% filter(Sample_type == "Nitrite_Blank")
df_no2_blank # 21

# A tibble: 21 x 16
   Sample        Nitrite_input Nitrate_input Category Sample_type  Soil       pH
   <chr>                 <dbl>         <dbl> <chr>    <fct>        <chr>   <dbl>
 1 Aerobic_Nitr~             2             0 Aerobic  Nitrite_Bla~ Nitrit~     6
 2 Aerobic_Nitr~             2             0 Aerobic  Nitrite_Bla~ Nitrit~     6
 3 Aerobic_Nitr~             2             0 Aerobic  Nitrite_Bla~ Nitrit~     6
 4 Aerobic_Nitr~             2             0 Aerobic  Nitrite_Bla~ Nitrit~     6
 5 Aerobic_Nitr~             2             0 Aerobic  Nitrite_Bla~ Nitrit~     6
 6 Aerobic_Nitr~             2             0 Aerobic  Nitrite_Bla~ Nitrit~     6
 7 Aerobic_Nitr~             2             0 Aerobic  Nitrite_Bla~ Nitrit~     6
 8 Aerobic_Nitr~             2             0 Aerobic  Nitrite_Bla~ Nitrit~     6
 9 Aerobic_Nitr~             2             0 Aerobic  Nitrite_Bla~ Nitrit~     6
10 Aerobic_Nitr~             2             0 Aerobic  Nitrite_Bla~ Nitrit~     6
# ... with 11 more rows, and 9 more variables: Time_point <fct>, Plate <chr>,
#   Time_minutes <chr>, Time_hours <dbl>, Time_days <dbl>, Ave_NO2_mM <dbl>,
#   Std_NO2_mM <dbl>, Ave_NO3_mM <dbl>, Std_NO3_mM <dbl>
…
# 2. Apply blank correction factor (drying effect during incubation)
# Blank reads
df_no3_blank <- df_NO2NO3 %>% filter(Sample_type == "Nitrate_Blank")
df_no3_blank

# A tibble: 21 x 16
   Sample        Nitrite_input Nitrate_input Category Sample_type  Soil       pH
   <chr>                 <dbl>         <dbl> <chr>    <fct>        <chr>   <dbl>
 1 Aerobic_Nitr~             0             2 Aerobic  Nitrate_Bla~ Nitrat~     6
 2 Aerobic_Nitr~             0             2 Aerobic  Nitrate_Bla~ Nitrat~     6
 3 Aerobic_Nitr~             0             2 Aerobic  Nitrate_Bla~ Nitrat~     6
 4 Aerobic_Nitr~             0             2 Aerobic  Nitrate_Bla~ Nitrat~     6
 5 Aerobic_Nitr~             0             2 Aerobic  Nitrate_Bla~ Nitrat~     6
 6 Aerobic_Nitr~             0             2 Aerobic  Nitrate_Bla~ Nitrat~     6
 7 Aerobic_Nitr~             0             2 Aerobic  Nitrate_Bla~ Nitrat~     6
 8 Aerobic_Nitr~             0             2 Aerobic  Nitrate_Bla~ Nitrat~     6
 9 Aerobic_Nitr~             0             2 Aerobic  Nitrate_Bla~ Nitrat~     6
10 Aerobic_Nitr~             0             2 Aerobic  Nitrate_Bla~ Nitrat~     6
# ... with 11 more rows, and 9 more variables: Time_point <fct>, Plate <chr>,
#   Time_minutes <chr>, Time_hours <dbl>, Time_days <dbl>, Ave_NO2_mM <dbl>,
#   Std_NO2_mM <dbl>, Ave_NO3_mM <dbl>, Std_NO3_mM <dbl>

df_no2_blank <- df_NO2NO3 %>% filter(Sample_type == "Nitrite_Blank")
df_no2_blank

# A tibble: 21 x 16
   Sample        Nitrite_input Nitrate_input Category Sample_type  Soil       pH
   <chr>                 <dbl>         <dbl> <chr>    <fct>        <chr>   <dbl>
 1 Aerobic_Nitr~             2             0 Aerobic  Nitrite_Bla~ Nitrit~     6
 2 Aerobic_Nitr~             2             0 Aerobic  Nitrite_Bla~ Nitrit~     6
 3 Aerobic_Nitr~             2             0 Aerobic  Nitrite_Bla~ Nitrit~     6
 4 Aerobic_Nitr~             2             0 Aerobic  Nitrite_Bla~ Nitrit~     6
 5 Aerobic_Nitr~             2             0 Aerobic  Nitrite_Bla~ Nitrit~     6
 6 Aerobic_Nitr~             2             0 Aerobic  Nitrite_Bla~ Nitrit~     6
 7 Aerobic_Nitr~             2             0 Aerobic  Nitrite_Bla~ Nitrit~     6
 8 Aerobic_Nitr~             2             0 Aerobic  Nitrite_Bla~ Nitrit~     6
 9 Aerobic_Nitr~             2             0 Aerobic  Nitrite_Bla~ Nitrit~     6
10 Aerobic_Nitr~             2             0 Aerobic  Nitrite_Bla~ Nitrit~     6
# ... with 11 more rows, and 9 more variables: Time_point <fct>, Plate <chr>,
#   Time_minutes <chr>, Time_hours <dbl>, Time_days <dbl>, Ave_NO2_mM <dbl>,
#   Std_NO2_mM <dbl>, Ave_NO3_mM <dbl>, Std_NO3_mM <dbl>
…
