211127_Griess_time_series_slurry_vs_liquid_culture
…
# After moisture correction
df_NO2NO3_slurry_mcf

# A tibble: 44 x 14
   Sample         Nitrite_input Nitrate_input Sample_type    pH Time_point Plate
   <chr>                  <dbl>         <dbl> <fct>       <dbl> <fct>      <chr>
 1 Slurry_pH4_T0              0             2 Slurry          4 T0         SUP1 
 2 Slurry_pH4_T1              0             2 Slurry          4 T1         SUP1 
 3 Slurry_pH4_T10             0             2 Slurry          4 T10        SUP11
 4 Slurry_pH4_T2              0             2 Slurry          4 T2         SUP3 
 5 Slurry_pH4_T3              0             2 Slurry          4 T3         SUP3 
 6 Slurry_pH4_T4              0             2 Slurry          4 T4         SUP5 
 7 Slurry_pH4_T5              0             2 Slurry          4 T5         SUP5 
 8 Slurry_pH4_T6              0             2 Slurry          4 T6         SUP7 
 9 Slurry_pH4_T7              0             2 Slurry          4 T7         SUP7 
10 Slurry_pH4_T8              0             2 Slurry          4 T8         SUP9 
# ... with 34 more rows, and 7 more variables: Time_minutes <chr>,
#   Time_hours <dbl>, Time_days <dbl>, Ave_NO2_mM <dbl>, Std_NO2_mM <dbl>,
#   Ave_NO3_mM <dbl>, Std_NO3_mM <dbl>
…
# After blank correction (evaporation) - All samples (Slurry vs Supernatant)
df_sample_bcf

# A tibble: 128 x 16
   Sample         Nitrite_input Nitrate_input Sample_type    pH Time_point Plate
   <chr>                  <dbl>         <dbl> <fct>       <dbl> <fct>      <chr>
 1 Slurry_pH4_T0              0             2 Slurry          4 T0         SUP1 
 2 Slurry_pH4_T1              0             2 Slurry          4 T1         SUP1 
 3 Slurry_pH4_T10             0             2 Slurry          4 T10        SUP11
 4 Slurry_pH4_T2              0             2 Slurry          4 T2         SUP3 
 5 Slurry_pH4_T3              0             2 Slurry          4 T3         SUP3 
 6 Slurry_pH4_T4              0             2 Slurry          4 T4         SUP5 
 7 Slurry_pH4_T5              0             2 Slurry          4 T5         SUP5 
 8 Slurry_pH4_T6              0             2 Slurry          4 T6         SUP7 
 9 Slurry_pH4_T7              0             2 Slurry          4 T7         SUP7 
10 Slurry_pH4_T8              0             2 Slurry          4 T8         SUP9 
# ... with 118 more rows, and 9 more variables: Time_minutes <chr>,
#   Time_hours <dbl>, Time_days <dbl>, Ave_NO2_mM <dbl>, Std_NO2_mM <dbl>,
#   Ave_NO3_mM <dbl>, Std_NO3_mM <dbl>, Correction_factor_NO2 <dbl>,
#   Correction_factor_NO3 <dbl>
…
