211220_Griess_slurry_vs_supernatant2
…
# Factor in orders
df_NO2NO3$Sample_type <-  factor(df_NO2NO3$Sample_type, levels = c("Slurry", "Supernatant","Control","Nitrite_Blank", "Nitrate_Blank"))
df_NO2NO3$Time_point <-  factor(df_NO2NO3$Time_point, levels = c(paste0("AU",0:11),paste0("BN",0:9)))
dim(df_NO2NO3) #294

[1] 292  15

# Testing negative samples
df_no3_blank <- df_NO2NO3 %>% filter(Sample_type == "Nitrate_Blank")
df_no3_blank # 21

# A tibble: 22 x 15
   Nitrite_input Nitrate_input Category Dilution Sample_type  Soil    Time_point
           <dbl>         <dbl> <chr>    <chr>    <fct>        <chr>   <fct>     
 1             0             2 AU       1        Nitrate_Bla~ Nichol~ AU0       
 2             0             2 AU       1        Nitrate_Bla~ Nichol~ AU1       
 3             0             2 AU       1        Nitrate_Bla~ Nichol~ AU10      
 4             0             2 AU       1        Nitrate_Bla~ Nichol~ AU11      
 5             0             2 AU       1        Nitrate_Bla~ Nichol~ AU2       
 6             0             2 AU       1        Nitrate_Bla~ Nichol~ AU3       
 7             0             2 AU       1        Nitrate_Bla~ Nichol~ AU4       
 8             0             2 AU       1        Nitrate_Bla~ Nichol~ AU5       
 9             0             2 AU       1        Nitrate_Bla~ Nichol~ AU6       
10             0             2 AU       1        Nitrate_Bla~ Nichol~ AU7       
# ... with 12 more rows, and 8 more variables: Plate <chr>, Time_minutes <chr>,
#   Time_hours <dbl>, Time_days <dbl>, Ave_NO2_mM <dbl>, Std_NO2_mM <dbl>,
#   Ave_NO3_mM <dbl>, Std_NO3_mM <dbl>

df_no2_blank <- df_NO2NO3 %>% filter(Sample_type == "Nitrite_Blank")
df_no2_blank # 21

# A tibble: 22 x 15
   Nitrite_input Nitrate_input Category Dilution Sample_type  Soil    Time_point
           <dbl>         <dbl> <chr>    <chr>    <fct>        <chr>   <fct>     
 1             2             0 AU       1        Nitrite_Bla~ Nichol~ AU0       
 2             2             0 AU       1        Nitrite_Bla~ Nichol~ AU1       
 3             2             0 AU       1        Nitrite_Bla~ Nichol~ AU10      
 4             2             0 AU       1        Nitrite_Bla~ Nichol~ AU11      
 5             2             0 AU       1        Nitrite_Bla~ Nichol~ AU2       
 6             2             0 AU       1        Nitrite_Bla~ Nichol~ AU3       
 7             2             0 AU       1        Nitrite_Bla~ Nichol~ AU4       
 8             2             0 AU       1        Nitrite_Bla~ Nichol~ AU5       
 9             2             0 AU       1        Nitrite_Bla~ Nichol~ AU6       
10             2             0 AU       1        Nitrite_Bla~ Nichol~ AU7       
# ... with 12 more rows, and 8 more variables: Plate <chr>, Time_minutes <chr>,
#   Time_hours <dbl>, Time_days <dbl>, Ave_NO2_mM <dbl>, Std_NO2_mM <dbl>,
#   Ave_NO3_mM <dbl>, Std_NO3_mM <dbl>
…
# 2. Apply blank correction factor (drying effect during incubation)
# Blank reads
df_no3_blank <- df_NO2NO3 %>% filter(Sample_type == "Nitrate_Blank")
df_no3_blank

# A tibble: 22 x 15
   Nitrite_input Nitrate_input Category Dilution Sample_type  Soil    Time_point
           <dbl>         <dbl> <chr>    <chr>    <fct>        <chr>   <fct>     
 1             0             2 AU       1        Nitrate_Bla~ Nichol~ AU0       
 2             0             2 AU       1        Nitrate_Bla~ Nichol~ AU1       
 3             0             2 AU       1        Nitrate_Bla~ Nichol~ AU10      
 4             0             2 AU       1        Nitrate_Bla~ Nichol~ AU11      
 5             0             2 AU       1        Nitrate_Bla~ Nichol~ AU2       
 6             0             2 AU       1        Nitrate_Bla~ Nichol~ AU3       
 7             0             2 AU       1        Nitrate_Bla~ Nichol~ AU4       
 8             0             2 AU       1        Nitrate_Bla~ Nichol~ AU5       
 9             0             2 AU       1        Nitrate_Bla~ Nichol~ AU6       
10             0             2 AU       1        Nitrate_Bla~ Nichol~ AU7       
# ... with 12 more rows, and 8 more variables: Plate <chr>, Time_minutes <chr>,
#   Time_hours <dbl>, Time_days <dbl>, Ave_NO2_mM <dbl>, Std_NO2_mM <dbl>,
#   Ave_NO3_mM <dbl>, Std_NO3_mM <dbl>

df_no2_blank <- df_NO2NO3 %>% filter(Sample_type == "Nitrite_Blank")
df_no2_blank

# A tibble: 22 x 15
   Nitrite_input Nitrate_input Category Dilution Sample_type  Soil    Time_point
           <dbl>         <dbl> <chr>    <chr>    <fct>        <chr>   <fct>     
 1             2             0 AU       1        Nitrite_Bla~ Nichol~ AU0       
 2             2             0 AU       1        Nitrite_Bla~ Nichol~ AU1       
 3             2             0 AU       1        Nitrite_Bla~ Nichol~ AU10      
 4             2             0 AU       1        Nitrite_Bla~ Nichol~ AU11      
 5             2             0 AU       1        Nitrite_Bla~ Nichol~ AU2       
 6             2             0 AU       1        Nitrite_Bla~ Nichol~ AU3       
 7             2             0 AU       1        Nitrite_Bla~ Nichol~ AU4       
 8             2             0 AU       1        Nitrite_Bla~ Nichol~ AU5       
 9             2             0 AU       1        Nitrite_Bla~ Nichol~ AU6       
10             2             0 AU       1        Nitrite_Bla~ Nichol~ AU7       
# ... with 12 more rows, and 8 more variables: Plate <chr>, Time_minutes <chr>,
#   Time_hours <dbl>, Time_days <dbl>, Ave_NO2_mM <dbl>, Std_NO2_mM <dbl>,
#   Ave_NO3_mM <dbl>, Std_NO3_mM <dbl>
…
### What are those points with very high std?
colnames(df_NO2NO3)

 [1] "Nitrite_input" "Nitrate_input" "Category"      "Dilution"     
 [5] "Sample_type"   "Soil"          "Time_point"    "Plate"        
 [9] "Time_minutes"  "Time_hours"    "Time_days"     "Ave_NO2_mM"   
[13] "Std_NO2_mM"    "Ave_NO3_mM"    "Std_NO3_mM"   

df_NO2NO3 %>% arrange(desc(Std_NO3_mM)) %>% select(Category, Dilution, Sample_type, Time_point, Plate, Std_NO3_mM)

# A tibble: 292 x 6
   Category Dilution Sample_type   Time_point Plate Std_NO3_mM
   <chr>    <chr>    <fct>         <fct>      <chr>      <dbl>
 1 AU       1        Supernatant   AU11       P11        0.366
 2 AU       1        Nitrate_Blank AU5        P5         0.343
 3 BN       N_0.125  Supernatant   BN9        P11        0.282
 4 BN       B_0.5    Supernatant   BN9        P11        0.213
 5 BN       N_0.125  Supernatant   BN7        P9         0.196
 6 BN       N_0.125  Supernatant   BN8        P10        0.195
 7 AU       0.25     Supernatant   AU7        P7         0.184
 8 BN       B_0.125  Supernatant   BN5        P7         0.168
 9 BN       B_0.125  Supernatant   BN4        P6         0.157
10 BN       N_0.125  Supernatant   BN6        P8         0.154
# ... with 282 more rows
…
