220103_Griess_pH_perturbation
…
[1] 360  15

# Testing negative samples
df_no3_blank <- df_NO2NO3 %>% filter(Sample_type == "Nitrate_Blank")
df_no3_blank # 24

# A tibble: 24 x 15
   Nitrite_input Nitrate_input Soil      Titration_type Concentration_M Added_ul
           <dbl>         <dbl> <fct>     <chr>                    <dbl>    <dbl>
 1             0             2 Allandal~ Nitrate                      0        0
 2             0             2 Allandal~ Nitrate                      0        0
 3             0             2 Allandal~ Nitrate                      0        0
 4             0             2 Allandal~ Nitrate                      0        0
 5             0             2 Allandal~ Nitrate                      0        0
 6             0             2 Allandal~ Nitrate                      0        0
 7             0             2 Allandal~ Nitrate                      0        0
 8             0             2 Allandal~ Nitrate                      0        0
 9             0             2 Allandal~ Nitrate                      0        0
10             0             2 Allandal~ Nitrate                      0        0
# ... with 14 more rows, and 9 more variables: Sample_type <fct>,
#   Time_point <chr>, Time_minutes <chr>, Time_hours <dbl>, Time_days <dbl>,
#   Ave_NO2_mM <dbl>, Std_NO2_mM <dbl>, Ave_NO3_mM <dbl>, Std_NO3_mM <dbl>

df_no2_blank <- df_NO2NO3 %>% filter(Sample_type == "Nitrite_Blank")
df_no2_blank # 24

# A tibble: 24 x 15
   Nitrite_input Nitrate_input Soil      Titration_type Concentration_M Added_ul
           <dbl>         <dbl> <fct>     <chr>                    <dbl>    <dbl>
 1             2             0 Allandal~ Nitrite                      0        0
 2             2             0 Allandal~ Nitrite                      0        0
 3             2             0 Allandal~ Nitrite                      0        0
 4             2             0 Allandal~ Nitrite                      0        0
 5             2             0 Allandal~ Nitrite                      0        0
 6             2             0 Allandal~ Nitrite                      0        0
 7             2             0 Allandal~ Nitrite                      0        0
 8             2             0 Allandal~ Nitrite                      0        0
 9             2             0 Allandal~ Nitrite                      0        0
10             2             0 Allandal~ Nitrite                      0        0
# ... with 14 more rows, and 9 more variables: Sample_type <fct>,
#   Time_point <chr>, Time_minutes <chr>, Time_hours <dbl>, Time_days <dbl>,
#   Ave_NO2_mM <dbl>, Std_NO2_mM <dbl>, Ave_NO3_mM <dbl>, Std_NO3_mM <dbl>
…
# 2. Apply blank correction factor (drying effect during incubation)
# Blank reads
df_no3_blank <- df_NO2NO3 %>% filter(Sample_type == "Nitrate_Blank")
df_no3_blank

# A tibble: 24 x 15
   Nitrite_input Nitrate_input Soil      Titration_type Concentration_M Added_ul
           <dbl>         <dbl> <fct>     <chr>                    <dbl>    <dbl>
 1             0             2 Allandal~ Nitrate                      0        0
 2             0             2 Allandal~ Nitrate                      0        0
 3             0             2 Allandal~ Nitrate                      0        0
 4             0             2 Allandal~ Nitrate                      0        0
 5             0             2 Allandal~ Nitrate                      0        0
 6             0             2 Allandal~ Nitrate                      0        0
 7             0             2 Allandal~ Nitrate                      0        0
 8             0             2 Allandal~ Nitrate                      0        0
 9             0             2 Allandal~ Nitrate                      0        0
10             0             2 Allandal~ Nitrate                      0        0
# ... with 14 more rows, and 9 more variables: Sample_type <fct>,
#   Time_point <chr>, Time_minutes <chr>, Time_hours <dbl>, Time_days <dbl>,
#   Ave_NO2_mM <dbl>, Std_NO2_mM <dbl>, Ave_NO3_mM <dbl>, Std_NO3_mM <dbl>

df_no2_blank <- df_NO2NO3 %>% filter(Sample_type == "Nitrite_Blank")
df_no2_blank

# A tibble: 24 x 15
   Nitrite_input Nitrate_input Soil      Titration_type Concentration_M Added_ul
           <dbl>         <dbl> <fct>     <chr>                    <dbl>    <dbl>
 1             2             0 Allandal~ Nitrite                      0        0
 2             2             0 Allandal~ Nitrite                      0        0
 3             2             0 Allandal~ Nitrite                      0        0
 4             2             0 Allandal~ Nitrite                      0        0
 5             2             0 Allandal~ Nitrite                      0        0
 6             2             0 Allandal~ Nitrite                      0        0
 7             2             0 Allandal~ Nitrite                      0        0
 8             2             0 Allandal~ Nitrite                      0        0
 9             2             0 Allandal~ Nitrite                      0        0
10             2             0 Allandal~ Nitrite                      0        0
# ... with 14 more rows, and 9 more variables: Sample_type <fct>,
#   Time_point <chr>, Time_minutes <chr>, Time_hours <dbl>, Time_days <dbl>,
#   Ave_NO2_mM <dbl>, Std_NO2_mM <dbl>, Ave_NO3_mM <dbl>, Std_NO3_mM <dbl>
…
### What are those points with very high std?
colnames(df_NO2NO3)

 [1] "Nitrite_input"   "Nitrate_input"   "Soil"            "Titration_type" 
 [5] "Concentration_M" "Added_ul"        "Sample_type"     "Time_point"     
 [9] "Time_minutes"    "Time_hours"      "Time_days"       "Ave_NO2_mM"     
[13] "Std_NO2_mM"      "Ave_NO3_mM"      "Std_NO3_mM"     

df_NO2NO3 %>% arrange(desc(Std_NO3_mM)) %>% select(Soil, Titration_type, Concentration_M, Sample_type, Time_point, Std_NO3_mM) 

# A tibble: 360 x 6
   Soil         Titration_type Concentration_M Sample_type Time_point Std_NO3_mM
   <fct>        <chr>                    <dbl> <fct>       <chr>           <dbl>
 1 Allandale_p~ HCl                     0.0125 Slurry      T12             0.654
 2 Allandale_p~ NaOH                    0.025  Slurry      T12             0.379
 3 Allandale_p~ NaOH                    0.0125 Slurry      T12             0.352
 4 Allandale_p~ NaOH                    0      Slurry      T12             0.331
 5 Allandale_p~ NaOH                    0.0375 Slurry      T12             0.326
 6 NicholsC_pH7 HCl                     0.35   Slurry      T0              0.281
 7 Allandale_p~ HCl                     0.0375 Slurry      T2              0.249
 8 NicholsC_pH7 HCl                     0.35   Slurry      T2              0.232
 9 NicholsC_pH7 NaOH                    0.05   Slurry      T1              0.211
10 NicholsC_pH7 NaOH                    0.05   Slurry      T2              0.210
# ... with 350 more rows
…
grad_pH <- scale_colour_gradientn(colours = col_pH(100))

# Confer this page (https://stackoverflow.com/questions/21537782/how-to-set-fixed-continuous-colour-values-in-ggplot2)
# myPalette <- colorRampPalette(rev(brewer.pal(11, "Spectral")))
# sc <- scale_colour_gradientn(colours = myPalette(100), limits=c(1, 8))

# first HCl, NaOH mM calculation
df_NO2NO3_bcf

# A tibble: 360 x 17
   Nitrite_input Nitrate_input Soil      Titration_type Concentration_M Added_ul
           <dbl>         <dbl> <fct>     <chr>                    <dbl>    <dbl>
 1             0             2 NicholsC~ HCl                     0.0125        5
 2             0             2 NicholsC~ HCl                     0.0125        5
 3             0             2 NicholsC~ HCl                     0.0125        5
 4             0             2 NicholsC~ HCl                     0.0125        5
 5             0             2 NicholsC~ HCl                     0.0125        5
 6             0             2 NicholsC~ HCl                     0.0125        5
 7             0             2 NicholsC~ HCl                     0.0125        5
 8             0             2 NicholsC~ HCl                     0.0125        5
 9             0             2 NicholsC~ HCl                     0.0125        5
10             0             2 NicholsC~ HCl                     0.0125        5
# ... with 350 more rows, and 11 more variables: Sample_type <fct>,
#   Time_point <chr>, Time_minutes <chr>, Time_hours <dbl>, Time_days <dbl>,
#   Ave_NO2_mM <dbl>, Std_NO2_mM <dbl>, Ave_NO3_mM <dbl>, Std_NO3_mM <dbl>,
#   Correction_factor_NO2 <dbl>, Correction_factor_NO3 <dbl>
…
