220131_Griess_pH_perturbation3
…
4.1.1. Nitrite peakheight and H_mM

colnames(df_plot2)

[1] "H_mM"       "NO3_mM"     "NO2_mM"     "Soil"       "Time_hours"

df_plot2 %>% group_by(H_mM) %>% summarize(Max_NO2_mM = max(NO2_mM)) %>% ungroup()

# A tibble: 37 x 2
    H_mM Max_NO2_mM
   <dbl>      <dbl>
 1 -94.7     1.70  
 2 -89.4     1.45  
 3 -84.2     1.07  
 4 -78.9     0.0876
 5 -73.7     0.0895
 6 -68.4     1.17  
 7 -63.1     1.74  
 8 -57.9     1.30  
 9 -52.6     1.70  
10 -47.4     1.23  
# ... with 27 more rows
…
df_plot2 %>% group_by(H_mM, Soil, Time_hours)

# A tibble: 403 x 5
# Groups:   H_mM, Soil, Time_hours [403]
    H_mM NO3_mM NO2_mM Soil               Time_hours
   <dbl>  <dbl>  <dbl> <chr>                   <dbl>
 1  5.26   2.21 0.0657 LaBaghWoods_pH6.66        0  
 2 15.8    2.17 0.0279 LaBaghWoods_pH6.66        0  
 3 26.3    2.12 0.0284 LaBaghWoods_pH6.66        0  
 4 36.8    2.11 0.0281 LaBaghWoods_pH6.66        0  
 5 47.4    2.11 0.0277 LaBaghWoods_pH6.66        0  
 6 57.9    2.15 0.0307 LaBaghWoods_pH6.66        0  
 7  5.26   2.29 0.0301 LaBaghWoods_pH6.66        3.6
 8 26.3    2.14 0.0288 LaBaghWoods_pH6.66        3.6
 9 36.8    1.84 0.0293 LaBaghWoods_pH6.66        3.6
10 47.4    1.95 0.0306 LaBaghWoods_pH6.66        3.6
# ... with 393 more rows
…
