220327_Griess_3_soil_pH_perturbation
…
[1] 1065   25

# average the no acid base one.
df_plot <- df_pH %>% select(H_mM, NO3_mM, NO2_mM, Soil, Time_hours, Time_point)
df_plot %>% filter(H_mM == 0) %>% dim()

[1] 96  6

df_plot %>% filter(H_mM == 0) %>% group_by(H_mM, Soil, Time_hours, Time_point) %>% summarize(NO3_mM = mean(NO3_mM), NO2_mM = mean(NO2_mM)) %>% ungroup()

`summarise()` has grouped output by 'H_mM', 'Soil', 'Time_hours'. You can override using the `.groups` argument.

# A tibble: 32 x 6
    H_mM Soil           Time_hours Time_point NO3_mM NO2_mM
   <dbl> <chr>               <dbl> <chr>       <dbl>  <dbl>
 1     0 Crerar1_pH8.05        0   C_T0       2.23   0.0210
 2     0 Crerar1_pH8.05        3   C_T1       2.18   0.0215
 3     0 Crerar1_pH8.05        6.2 C_T2       2.12   0.0485
 4     0 Crerar1_pH8.05        9.2 C_T3       1.92   0.0887
 5     0 Crerar1_pH8.05       19   C_T4       1.50   0.116 
 6     0 Crerar1_pH8.05       26.5 C_T5       1.17   0.0958
 7     0 Crerar1_pH8.05       32.3 C_T6       0.883  0.0949
 8     0 Crerar1_pH8.05       38   C_T7       0.637  0.0848
 9     0 Crerar1_pH8.05       53.2 C_T8       0.0305 0.0483
10     0 Crerar1_pH8.05       75.5 C_T9       0      0.0207
# ... with 22 more rows
…
