220421_Griess_antibiotics_and_sterile
…
[1] 783  26

# average the no acid base one.
df_plot <- df_pH %>% select(H_mM, Titration_type, Unit, NO3_mM, NO2_mM, Soil, Time_hours, Time_point, Antibiotics_type)
df_plot %>% filter(H_mM == 0) %>% dim()

[1] 165   9

df_plot %>% filter(H_mM == 0) %>% group_by(H_mM, Titration_type, Unit, Soil, Time_hours, Time_point, Antibiotics_type) %>% summarize(NO3_mM = mean(NO3_mM), NO2_mM = mean(NO2_mM)) %>% ungroup()

`summarise()` has grouped output by 'H_mM', 'Titration_type', 'Unit', 'Soil', 'Time_hours', 'Time_point'. You can override using the `.groups` argument.

# A tibble: 55 x 9
    H_mM Titration_type  Unit Soil        Time_hours Time_point Antibiotics_type
   <dbl> <chr>          <dbl> <fct>            <dbl> <fct>      <chr>           
 1     0 HCl                0 LaBaghWood~        0   LBA_T0     CHL             
 2     0 HCl                0 LaBaghWood~        0   LBA_T0     CHL_NYT         
 3     0 HCl                0 LaBaghWood~        0   LBA_T0     None            
 4     0 HCl                0 LaBaghWood~        0   LBA_T0     NYT             
 5     0 HCl                0 LaBaghWood~        4.3 LBA_T1     CHL             
 6     0 HCl                0 LaBaghWood~        4.3 LBA_T1     CHL_NYT         
 7     0 HCl                0 LaBaghWood~        4.3 LBA_T1     None            
 8     0 HCl                0 LaBaghWood~        4.3 LBA_T1     NYT             
 9     0 HCl                0 LaBaghWood~        7.5 LBA_T2     CHL             
10     0 HCl                0 LaBaghWood~        7.5 LBA_T2     CHL_NYT         
# ... with 45 more rows, and 2 more variables: NO3_mM <dbl>, NO2_mM <dbl>
…
