220519_Griess_antibiotics_dose_effect
…
[1] 923  27

# average the no acid base one.
df_plot <- df_pH %>% select(H_mM, Titration_type, Unit, NO3_mM, NO2_mM, Soil, Time_hours, Time_point, Antibiotics_type, Dose_ppm)
df_plot %>% filter(H_mM == 0) %>% dim()

[1] 220  10

df_plot %>% filter(H_mM == 0) %>% group_by(H_mM, Titration_type, Unit, Soil, Time_hours, Time_point, Antibiotics_type, Dose_ppm) %>% summarize(NO3_mM = mean(NO3_mM), NO2_mM = mean(NO2_mM)) %>% ungroup()

`summarise()` has grouped output by 'H_mM', 'Titration_type', 'Unit', 'Soil', 'Time_hours', 'Time_point', 'Antibiotics_type'. You can override using the `.groups` argument.

# A tibble: 187 x 10
    H_mM Titration_type  Unit Soil       Time_hours Time_point Antibiotics_type
   <dbl> <chr>          <dbl> <fct>           <dbl> <fct>      <chr>           
 1     0 HCl                0 Barneveld2          0 T0         CHL             
 2     0 HCl                0 Barneveld2          0 T0         CHL             
 3     0 HCl                0 Barneveld2          0 T0         CHL             
 4     0 HCl                0 Barneveld2          0 T0         CHX             
 5     0 HCl                0 Barneveld2          0 T0         CHX             
 6     0 HCl                0 Barneveld2          0 T0         CHX             
 7     0 HCl                0 Barneveld2          0 T0         KAN             
 8     0 HCl                0 Barneveld2          0 T0         KAN             
 9     0 HCl                0 Barneveld2          0 T0         KAN             
10     0 HCl                0 Barneveld2          0 T0         None            
# ... with 177 more rows, and 3 more variables: Dose_ppm <dbl>, NO3_mM <dbl>,
#   NO2_mM <dbl>
…
df_plot <- df_pH %>% select(H_mM, Titration_type, Unit, NO3_mM, NO2_mM, Soil, Time_hours, Time_point, Antibiotics_type, Dose_ppm)
df_plot %>% filter(H_mM == 0) %>% dim()

[1] 220  10

df_plot %>% filter(H_mM == 0) %>% group_by(H_mM, Titration_type, Unit, Soil, Time_hours, Time_point, Antibiotics_type, Dose_ppm) %>% summarize(NO3_mM = mean(NO3_mM), NO2_mM = mean(NO2_mM)) %>% ungroup()

`summarise()` has grouped output by 'H_mM', 'Titration_type', 'Unit', 'Soil', 'Time_hours', 'Time_point', 'Antibiotics_type'. You can override using the `.groups` argument.

# A tibble: 187 x 10
    H_mM Titration_type  Unit Soil       Time_hours Time_point Antibiotics_type
   <dbl> <chr>          <dbl> <fct>           <dbl> <fct>      <chr>           
 1     0 HCl                0 Barneveld2          0 T0         CHL             
 2     0 HCl                0 Barneveld2          0 T0         CHL             
 3     0 HCl                0 Barneveld2          0 T0         CHL             
 4     0 HCl                0 Barneveld2          0 T0         CHX             
 5     0 HCl                0 Barneveld2          0 T0         CHX             
 6     0 HCl                0 Barneveld2          0 T0         CHX             
 7     0 HCl                0 Barneveld2          0 T0         KAN             
 8     0 HCl                0 Barneveld2          0 T0         KAN             
 9     0 HCl                0 Barneveld2          0 T0         KAN             
10     0 HCl                0 Barneveld2          0 T0         None            
# ... with 177 more rows, and 3 more variables: Dose_ppm <dbl>, NO3_mM <dbl>,
#   NO2_mM <dbl>
…
