220520_TOC_antibiotics_dose_effect
…
# plot only 200, 1000
df_pH_bnk_sub2 %>% filter(Dose_ppm %in% c(0, 200, 1000))

# A tibble: 179 x 17
   Soil       Titration_type  Unit Sample_type Antibiotics_type Dose_ppm  H_mM
   <chr>      <chr>          <dbl> <chr>       <fct>            <fct>    <dbl>
 1 Barneveld2 HCl                0 Slurry      CHL              200          0
 2 Barneveld2 HCl                0 Slurry      CHL              200          0
 3 Barneveld2 HCl                0 Slurry      CHL              200          0
 4 Barneveld2 HCl                0 Slurry      CHL              1000         0
 5 Barneveld2 HCl                0 Slurry      CHL              1000         0
 6 Barneveld2 HCl                0 Slurry      CHL              1000         0
 7 Barneveld2 HCl                0 Slurry      KAN              200          0
 8 Barneveld2 HCl                0 Slurry      KAN              200          0
 9 Barneveld2 HCl                0 Slurry      KAN              200          0
10 Barneveld2 HCl                0 Slurry      KAN              1000         0
# ... with 169 more rows, and 10 more variables: Time_point <chr>,
#   Time_minutes <chr>, Time_hours <dbl>, Time_days <dbl>, pH <dbl>,
#   TOC_mgml <dbl>, pH_range <chr>, pH_min <dbl>, pH_max <dbl>,
#   Blank_TOC_mgml <dbl>
…
