Soil_extraction_method_Griess
…
# (2) Percentage of 5 different methods retrieving the spike ins.
df_NO2NO3

# A tibble: 45 x 9
   Sample   Buffer Soil_weight Method Spike_in  Ave_NO2_mM Std_NO2_mM Ave_NO3_mM
   <chr>    <fct>        <dbl> <chr>  <fct>          <dbl>      <dbl>      <dbl>
 1 H2O_0.1~ H2O            0.1 Filter Original~     0.0222   0.000830    0.0122 
 2 H2O_0.1~ H2O            0.1 Filter Spiked_s~     0.208    0.00534     0.176  
 3 H2O_0.1~ H2O            0.1 Spind~ Spiked_s~     0.185    0.0125      0.176  
 4 H2O_0.1~ H2O            0.1 Spind~ Original~     0.0318   0.00101     0      
 5 H2O_1g_~ H2O            1   Filter Original~     0.0188   0.000411    0.00537
 6 H2O_1g_~ H2O            1   Filter Spiked_s~     0.199    0.00464     0.192  
 7 H2O_1g_~ H2O            1   Spind~ Original~     0.0373   0.0100      0      
 8 H2O_1g_~ H2O            1   Spind~ Spiked_s~     0.176    0.00197     0.166  
 9 H2O_1g_~ H2O            1   Whatm~ Original~     0.0298   0.000475    0      
10 H2O_1g_~ H2O            1   Whatm~ Spiked_s~     0.204    0.00334     0.198  
# ... with 35 more rows, and 1 more variable: Std_NO3_mM <dbl>
…
# (2) Percentage of 5 different methods retrieving the spike ins.
df_NO2NO3

# A tibble: 45 x 9
   Sample   Buffer Soil_weight Method Spike_in  Ave_NO2_mM Std_NO2_mM Ave_NO3_mM
   <chr>    <fct>        <dbl> <chr>  <fct>          <dbl>      <dbl>      <dbl>
 1 H2O_0.1~ H2O            0.1 Filter Original~     0.0222   0.000830    0.0122 
 2 H2O_0.1~ H2O            0.1 Filter Spiked_s~     0.208    0.00534     0.176  
 3 H2O_0.1~ H2O            0.1 Spind~ Spiked_s~     0.185    0.0125      0.176  
 4 H2O_0.1~ H2O            0.1 Spind~ Original~     0.0318   0.00101     0      
 5 H2O_1g_~ H2O            1   Filter Original~     0.0188   0.000411    0.00537
 6 H2O_1g_~ H2O            1   Filter Spiked_s~     0.199    0.00464     0.192  
 7 H2O_1g_~ H2O            1   Spind~ Original~     0.0373   0.0100      0      
 8 H2O_1g_~ H2O            1   Spind~ Spiked_s~     0.176    0.00197     0.166  
 9 H2O_1g_~ H2O            1   Whatm~ Original~     0.0298   0.000475    0      
10 H2O_1g_~ H2O            1   Whatm~ Spiked_s~     0.204    0.00334     0.198  
# ... with 35 more rows, and 1 more variable: Std_NO3_mM <dbl>
…
